universal_patient_id,resection_margins,chemotherapy,stage,T,N,M,age,sex,tumour_site,lymphovascular_invasion,disease_free_survival_months,is_censored_disease_free_survival,overall_survival_months,is_censored_overall_survival,KRAS_status,KRAS_mutation_type
F001,R0,chemotherapy,3,3,1,0,72,male,distal,no_invasion,16.7,no,76.7,yes,wild-type,wild-type
F002,R0,chemotherapy,3,3,1,0,61,male,distal,no_invasion,86.5,yes,86.5,yes,mutant,G12C
F003,R0,chemotherapy,3,3,1,0,43,male,distal,no_invasion,115,yes,115,yes,mutant,G12D
F004,R0,chemotherapy,3,3,1,0,64,female,proximal,invasion,100.2,yes,100.2,yes,mutant,G12A
F005,not_R0,chemotherapy,3,4,1,0,51,female,distal,no_invasion,77.7,yes,77.7,yes,mutant,G13D
F006,R0,chemotherapy,3,3,1,0,42,male,rectal,no_invasion,95.5,yes,95.5,yes,wild-type,wild-type
F007,R0,chemotherapy,3,3,1,0,59,male,distal,no_invasion,59.1,yes,59.1,yes,,
F008,R0,chemotherapy,3,3,1,0,61,male,distal,no_invasion,78.3,yes,78.3,yes,wild-type,wild-type
F009,not_R0,chemotherapy,3,4,2,0,77,male,proximal,no_invasion,92.5,yes,92.5,yes,mutant,G12C
F010,R0,chemotherapy,3,2,1,0,65,male,rectal,invasion,81,yes,81,yes,mutant,G12D
F011,R0,chemotherapy,3,3,1,0,55,male,distal,no_invasion,67.9,yes,67.9,yes,,
F012,not_R0,chemotherapy,3,4,2,0,66,male,proximal,no_invasion,96.7,yes,96.7,yes,mutant,G12V
F013,R0,chemotherapy,3,2,1,0,72,female,proximal,no_invasion,94.3,yes,94.3,yes,wild-type,wild-type
F014,R0,chemotherapy,3,3,2,0,55,male,distal,invasion,66.6,yes,66.6,yes,wild-type,wild-type
F015,R0,chemotherapy,3,3,2,0,63,male,distal,no_invasion,78.6,yes,78.6,yes,mutant,G12D
F016,R0,chemotherapy,3,2,2,0,70,female,distal,no_invasion,87.7,yes,87.7,yes,wild-type,wild-type
F017,R0,chemotherapy,3,3,1,0,51,female,proximal,no_invasion,43.4,yes,43.4,yes,mutant,G12D
F018,R0,chemotherapy,3,2,1,0,54,male,distal,no_invasion,109.2,yes,109.2,yes,wild-type,wild-type
F019,not_R0,chemotherapy,3,4,1,0,59,male,proximal,no_invasion,59.6,yes,59.6,yes,wild-type,wild-type
F020,R0,chemotherapy,3,3,2,0,53,male,proximal,invasion,72.7,yes,72.7,yes,mutant,G12C
F021,R0,chemotherapy,3,2,1,0,46,female,proximal,no_invasion,66.3,yes,66.3,yes,mutant,G12D
F022,not_R0,chemotherapy,2,4,0,0,59,male,distal,no_invasion,65.9,yes,65.9,yes,mutant,G12C
F023,R0,chemotherapy,3,3,1,0,60,female,proximal,no_invasion,69.3,yes,69.3,yes,mutant,G12V
F024,R0,chemotherapy,3,3,1,0,69,female,proximal,no_invasion,83.7,yes,83.7,yes,wild-type,wild-type
F025,R0,chemotherapy,3,3,2,0,42,male,proximal,invasion,96.3,yes,96.3,yes,wild-type,wild-type
F026,R0,chemotherapy,3,3,2,0,64,male,proximal,no_invasion,91.5,yes,91.5,yes,mutant,G13D
F027,R0,chemotherapy,3,3,2,0,49,female,distal,invasion,102.2,yes,102.2,yes,mutant,G12V
F028,not_R0,chemotherapy,2,4,0,0,65,male,distal,no_invasion,38.1,no,73,no,wild-type,wild-type
F029,R0,chemotherapy,3,3,1,0,38,female,rectal,no_invasion,96.8,yes,96.8,yes,mutant,
F030,R0,chemotherapy,3,3,1,0,76,male,distal,invasion,15,no,91.6,yes,wild-type,wild-type
F031,R0,chemotherapy,3,3,1,0,54,male,distal,no_invasion,22,no,89.2,yes,wild-type,wild-type
F032,R0,chemotherapy,3,2,2,0,73,male,distal,no_invasion,92,yes,92,yes,wild-type,wild-type
F033,R0,chemotherapy,4,4,2,1,79,female,proximal,invasion,0,no,38,no,wild-type,wild-type
F034,R0,chemotherapy,3,3,2,0,67,male,proximal,no_invasion,72.3,yes,72.3,yes,wild-type,wild-type
F035,R0,chemotherapy,3,3,2,0,56,male,proximal,no_invasion,74.7,yes,74.7,yes,wild-type,wild-type
F036,R0,chemotherapy,3,3,1,0,62,female,distal,no_invasion,17.8,yes,17.8,yes,mutant,G12A
F037,R0,chemotherapy,3,3,2,0,73,female,proximal,no_invasion,75.5,yes,75.5,yes,wild-type,wild-type
F038,R0,chemotherapy,4,3,2,1,82,female,proximal,invasion,0,no,20,no,wild-type,wild-type
F039,R0,chemotherapy,3,3,1,0,79,male,proximal,invasion,41.1,yes,41.1,yes,mutant,G12D
F040,R0,chemotherapy,3,3,1,0,61,male,proximal,no_invasion,95.2,yes,95.2,yes,wild-type,wild-type
F041,R0,chemotherapy,3,3,1,0,61,male,distal,no_invasion,79.2,yes,79.2,yes,mutant,G12V
F042,R0,chemotherapy,3,4,1,0,38,male,distal,invasion,11,no,78.4,yes,wild-type,wild-type
F043,R0,chemotherapy,3,4,2,0,53,male,rectal,invasion,22,no,69.3,yes,wild-type,wild-type
F044,R0,chemotherapy,3,3,1,0,52,female,distal,invasion,83.3,yes,83.3,yes,mutant,G12D
F045,R0,chemotherapy,3,2,1,0,72,male,rectal,no_invasion,33.5,yes,33.5,yes,mutant,G13D
F046,R0,chemotherapy,3,4,1,0,53,male,distal,invasion,22,no,35.5,yes,wild-type,wild-type
F047,R0,chemotherapy,3,3,1,0,76,female,distal,no_invasion,85.4,yes,85.4,yes,wild-type,wild-type
F048,R0,chemotherapy,3,3,2,0,67,male,distal,invasion,69.5,yes,69.5,yes,wild-type,wild-type
F049,R0,chemotherapy,3,3,2,0,52,male,proximal,invasion,45.8,yes,45.8,yes,,
F050,R0,chemotherapy,3,3,2,0,71,female,proximal,no_invasion,93.9,yes,93.9,yes,mutant,G13D
F051,R0,chemotherapy,3,3,1,0,71,male,distal,no_invasion,95.7,yes,95.7,yes,mutant,G12S
F052,R0,chemotherapy,3,4,1,0,49,male,rectal,invasion,60.9,yes,60.9,yes,wild-type,wild-type
F053,not_R0,chemotherapy,3,4,2,0,30,male,rectal,invasion,95.8,yes,95.8,yes,wild-type,wild-type
F054,not_R0,chemotherapy,3,4,2,0,47,female,rectal,invasion,15,no,23,no,wild-type,wild-type
F055,R0,no_chemotherapy,3,4,2,0,73,male,proximal,invasion,0,no,1,no,wild-type,wild-type
F056,R0,chemotherapy,3,3,1,0,51,female,proximal,no_invasion,59.1,yes,59.1,yes,mutant,G12D
F057,R0,chemotherapy,3,3,1,0,66,male,rectal,no_invasion,12,no,90,yes,wild-type,wild-type
F058,R0,chemotherapy,3,4,1,0,73,female,rectal,no_invasion,31,no,31,yes,mutant,G12D
F059,R0,chemotherapy,3,3,1,0,63,male,distal,invasion,66.8,yes,66.8,yes,wild-type,wild-type
F060,R0,no_chemotherapy,3,4,1,0,60,female,rectal,no_invasion,22,no,82.8,yes,wild-type,wild-type
F061,R0,chemotherapy,3,3,1,0,63,male,proximal,invasion,72.4,yes,72.4,yes,mutant,A59T
F062,R0,chemotherapy,3,4,1,0,61,female,proximal,no_invasion,32,no,68.9,yes,mutant,G12C
F063,R0,chemotherapy,3,4,1,0,60,female,distal,invasion,49,no,81.7,yes,wild-type,wild-type
F064,R0,chemotherapy,3,3,1,0,48,female,distal,no_invasion,78.6,yes,78.6,yes,mutant,G12V
F065,R0,chemotherapy,3,4,1,0,61,female,proximal,invasion,7,no,18,no,mutant,G12V
F066,R0,chemotherapy,3,3,1,0,65,female,proximal,invasion,12,no,27,no,mutant,G13D
F067,R0,chemotherapy,3,3,2,0,76,female,proximal,invasion,28.4,yes,28.4,no,wild-type,wild-type
F068,R0,no_chemotherapy,3,4,1,0,62,male,proximal,invasion,1,no,20,no,mutant,G13D
F069,R0,chemotherapy,3,3,2,0,64,male,proximal,no_invasion,70.5,yes,70.5,yes,wild-type,wild-type
F070,R0,chemotherapy,3,3,2,0,44,female,rectal,invasion,22,no,54,no,wild-type,wild-type
F071,R0,no_chemotherapy,3,4,1,0,62,male,distal,invasion,12,no,30,no,mutant,G12V
F072,R0,chemotherapy,3,3,1,0,56,female,distal,no_invasion,59.6,yes,59.6,yes,mutant,G12V
F073,R0,chemotherapy,3,3,1,0,73,male,rectal,invasion,6,no,36,no,mutant,G13D
F074,R0,chemotherapy,3,3,1,0,51,female,proximal,invasion,20,no,20,yes,wild-type,wild-type
F075,R0,chemotherapy,3,4,1,0,70,female,distal,no_invasion,0,,0,,wild-type,wild-type
F076,R0,chemotherapy,3,3,1,0,74,male,distal,invasion,0,,0,,mutant,G13D
F077,R0,chemotherapy,3,3,1,0,78,male,proximal,invasion,0,yes,0,yes,wild-type,wild-type
F078,R0,chemotherapy,3,3,1,0,59,male,distal,invasion,0,yes,0,yes,,
F079,R0,chemotherapy,4,3,2,1,55,male,proximal,invasion,0,yes,0,yes,mutant,G12V
F080,R0,chemotherapy,3,3,1,0,72,male,proximal,no_invasion,40.2,yes,48.5,no,wild-type,wild-type
F081,R0,chemotherapy,3,4,2,0,26,male,distal,invasion,27.8,no,96.2,yes,wild-type,wild-type
F082,R0,chemotherapy,3,4,1,0,48,female,rectal,invasion,74.5,yes,74.5,yes,mutant,G12V
F083,R0,chemotherapy,3,2,1,0,54,female,distal,invasion,28.2,no,43.3,no,,
F084,R0,chemotherapy,4,4,2,1,58,male,proximal,invasion,80.7,yes,80.7,yes,wild-type,wild-type
F085,R0,chemotherapy,2,4,0,0,58,male,distal,invasion,83.1,yes,83.1,yes,wild-type,wild-type
F086,R0,chemotherapy,3,3,2,0,77,female,proximal,no_invasion,25.1,no,39.4,no,,
F087,R0,chemotherapy,3,3,1,0,69,male,distal,invasion,86.8,yes,86.8,yes,wild-type,wild-type
F088,R0,chemotherapy,3,4,1,0,39,male,proximal,invasion,60.7,yes,60.7,yes,wild-type,wild-type
F089,R0,chemotherapy,3,3,1,0,49,male,proximal,no_invasion,85.2,yes,85.2,yes,wild-type,wild-type
F090,R0,chemotherapy,3,4,2,0,50,male,distal,invasion,73,yes,73,yes,wild-type,wild-type
F091,R0,chemotherapy,3,4,1,0,63,male,proximal,no_invasion,64.2,yes,64.2,yes,wild-type,wild-type
F092,R0,chemotherapy,3,4,1,0,67,female,distal,invasion,65.1,yes,65.1,yes,wild-type,wild-type
F093,R0,chemotherapy,3,3,1,0,73,female,proximal,invasion,75.7,yes,75.7,yes,wild-type,wild-type
F094,R0,chemotherapy,3,4,2,0,70,female,proximal,invasion,23,no,40.5,no,mutant,G12V
F095,not_R0,chemotherapy,3,3,1,0,71,male,proximal,invasion,76.7,yes,76.7,yes,mutant,G13D
F096,R0,chemotherapy,3,4,1,0,62,male,rectal,invasion,51.2,no,54.7,no,wild-type,wild-type
F097,R0,chemotherapy,3,1,2,0,75,female,proximal,,77.6,yes,77.6,yes,,
F098,R0,chemotherapy,3,4,1,0,48,female,proximal,no_invasion,12.9,yes,12.9,yes,wild-type,wild-type
F099,R0,chemotherapy,3,3,1,0,63,male,distal,invasion,75.2,yes,75.2,yes,mutant,Q61P
F100,R0,chemotherapy,3,3,1,0,59,female,proximal,invasion,34.1,yes,34.1,yes,wild-type,wild-type
F101,R0,chemotherapy,3,2,2,0,70,male,proximal,no_invasion,62.4,no,77.7,yes,mutant,G12V
F102,R0,chemotherapy,3,3,1,0,39,male,proximal,invasion,14.7,yes,14.7,yes,wild-type,wild-type
F103,R0,chemotherapy,3,3,1,0,42,female,proximal,no_invasion,77.8,yes,77.8,yes,wild-type,wild-type
F104,R0,chemotherapy,3,3,1,0,63,female,distal,invasion,23,no,44,no,wild-type,wild-type
F105,R0,chemotherapy,3,4,1,0,64,female,proximal,invasion,60.7,yes,60.7,yes,mutant,G12D
F106,R0,chemotherapy,3,4,1,0,63,female,distal,invasion,70.8,yes,70.8,yes,wild-type,wild-type
F107,R0,chemotherapy,3,4,1,0,64,male,proximal,invasion,61.3,yes,61.3,yes,mutant,G12V
F108,R0,chemotherapy,3,3,1,0,54,male,proximal,invasion,62,yes,62,yes,mutant,G12V
F109,R0,chemotherapy,3,3,2,0,68,male,rectal,invasion,47.9,yes,47.9,no,wild-type,wild-type
F110,not_R0,chemotherapy,3,4,2,0,69,male,distal,invasion,71,yes,71,yes,wild-type,wild-type
F111,R0,chemotherapy,3,3,1,0,71,male,proximal,invasion,31.4,no,61.7,no,wild-type,wild-type
F112,R0,chemotherapy,3,4,1,0,67,female,rectal,invasion,58.2,yes,58.2,yes,wild-type,wild-type
F113,R0,chemotherapy,3,4,2,0,65,male,distal,invasion,57.4,yes,57.4,yes,mutant,G13D
F114,R0,chemotherapy,3,4,1,0,68,female,proximal,invasion,20,no,55.5,no,wild-type,wild-type
F115,R0,chemotherapy,3,3,1,0,64,male,proximal,invasion,64.6,no,64.6,yes,mutant,G12R
F116,R0,chemotherapy,3,2,2,0,53,female,distal,no_invasion,15.5,no,48.4,no,mutant,G12D
F117,R0,chemotherapy,3,3,2,0,59,male,rectal,invasion,62.2,yes,62.2,yes,wild-type,wild-type
F118,R0,chemotherapy,3,3,1,0,74,male,proximal,invasion,50.6,yes,50.6,yes,wild-type,wild-type
F119,R0,chemotherapy,3,4,1,0,73,female,proximal,invasion,62.6,yes,62.6,yes,mutant,G12V
F120,R0,chemotherapy,3,4,2,0,60,female,distal,invasion,12.8,no,31.2,no,wild-type,wild-type
F121,R0,chemotherapy,3,4,1,0,78,female,proximal,invasion,44.3,yes,44.3,yes,,
F122,R0,chemotherapy,3,3,1,0,59,male,distal,invasion,56.5,yes,56.5,yes,mutant,G12D
F123,R0,chemotherapy,3,3,1,0,68,female,distal,no_invasion,50.3,yes,50.3,yes,mutant,G12A
F124,R0,chemotherapy,3,4,1,0,66,male,proximal,invasion,48.7,yes,48.7,yes,wild-type,wild-type
F125,R0,chemotherapy,3,4,1,0,62,male,proximal,no_invasion,49.9,yes,49.9,yes,mutant,G12A
F126,R0,chemotherapy,3,3,1,0,65,female,distal,no_invasion,50.1,yes,50.1,yes,wild-type,wild-type
F127,R0,chemotherapy,3,4,1,0,58,male,distal,no_invasion,9.2,no,18.1,no,mutant,G13D
F128,R0,chemotherapy,2,3,0,0,66,male,distal,no_invasion,51.6,yes,51.6,yes,wild-type,wild-type
F129,R0,chemotherapy,4,4,1,1,39,female,proximal,invasion,8.4,no,23,no,mutant,Q61H
F130,R0,chemotherapy,3,3,1,0,53,female,rectal,no_invasion,53.3,yes,53.3,yes,mutant,G12V
F131,R0,chemotherapy,3,3,1,0,62,female,proximal,no_invasion,25.9,no,52.5,yes,wild-type,wild-type
F132,R0,chemotherapy,2,4,0,0,47,male,proximal,no_invasion,20.6,no,52.6,yes,wild-type,wild-type
F133,R0,chemotherapy,4,3,0,1,40,female,others,invasion,48.7,yes,48.7,yes,wild-type,wild-type
F134,R0,chemotherapy,3,3,1,0,41,male,proximal,no_invasion,50.7,yes,50.7,yes,wild-type,wild-type
F135,R0,chemotherapy,3,4,1,0,60,female,distal,invasion,53.4,yes,53.4,yes,wild-type,wild-type
F136,R0,chemotherapy,2,3,0,0,33,male,proximal,no_invasion,40,yes,40,yes,wild-type,wild-type
F137,R0,chemotherapy,3,4,1,0,62,male,proximal,invasion,42.1,yes,42.1,yes,mutant,G13D
F138,R0,chemotherapy,3,4,1,0,46,male,proximal,invasion,39.3,yes,39.3,yes,wild-type,wild-type
F139,R0,chemotherapy,4,,,1,62,female,others,invasion,16.2,yes,16.2,yes,wild-type,wild-type
F140,R0,chemotherapy,4,4,1,1,66,female,others,invasion,39.1,no,47.4,yes,wild-type,wild-type
F141,R0,chemotherapy,3,3,1,0,73,male,distal,invasion,40.9,yes,40.9,yes,wild-type,wild-type
F142,R0,chemotherapy,3,4,1,0,62,male,distal,invasion,10.6,no,40.8,no,,
F143,R0,chemotherapy,2,4,0,0,33,male,distal,invasion,8.7,yes,8.7,yes,wild-type,wild-type
F144,R0,chemotherapy,2,4,0,0,72,female,proximal,no_invasion,40.1,yes,40.1,yes,mutant,Q61H
F145,R0,chemotherapy,3,4,2,0,26,male,rectal,invasion,13.3,no,54.4,yes,wild-type,wild-type
F146,R0,chemotherapy,2,3,0,0,57,male,proximal,invasion,38.7,yes,38.7,yes,wild-type,wild-type
F147,R0,chemotherapy,3,4,1,0,45,female,distal,invasion,39.1,yes,39.1,yes,wild-type,wild-type
F148,R0,chemotherapy,3,3,1,0,62,female,rectal,invasion,38.9,yes,38.9,yes,wild-type,wild-type
F149,R0,chemotherapy,2,4,0,0,69,female,proximal,no_invasion,36.8,yes,36.8,yes,wild-type,wild-type
F150,R0,chemotherapy,3,3,2,0,68,male,proximal,invasion,8,no,23.1,no,,
F151,R0,chemotherapy,3,3,1,0,63,male,distal,no_invasion,35.2,yes,35.2,yes,mutant,Q61R
F152,R0,chemotherapy,3,2,1,0,60,male,rectal,no_invasion,34.7,yes,34.7,yes,,
F153,R0,chemotherapy,3,3,2,0,54,male,appendix,invasion,32.3,yes,32.3,yes,wild-type,wild-type
F154,R0,chemotherapy,3,4,2,0,68,male,distal,invasion,32.2,yes,32.2,yes,mutant,G12V
F155,R0,chemotherapy,2,3,0,0,67,male,distal,invasion,23.9,yes,23.9,yes,mutant,Q61R
F156,R0,chemotherapy,3,3,1,0,59,male,proximal,no_invasion,23.1,yes,23.1,yes,,
F157,R0,chemotherapy,3,4,1,0,63,female,distal,no_invasion,30.2,yes,30.2,yes,,
F158,R0,chemotherapy,2,4,0,0,69,male,rectal,invasion,32.6,yes,32.6,yes,wild-type,wild-type
F159,R0,chemotherapy,3,4,1,0,48,female,rectal,invasion,27.4,yes,27.4,yes,wild-type,wild-type
F160,R0,chemotherapy,2,3,0,0,58,male,proximal,invasion,27.9,yes,27.9,yes,mutant,G12D
F161,R0,chemotherapy,3,3,1,0,53,male,proximal,no_invasion,38.8,yes,38.8,yes,,
F162,R0,chemotherapy,3,3,1,0,60,female,rectal,invasion,23.2,no,39.6,yes,wild-type,wild-type
F163,R0,chemotherapy,3,3,1,0,71,female,proximal,no_invasion,9.5,no,34.6,no,wild-type,wild-type
F164,R0,chemotherapy,4,4,2,1,73,male,rectal,invasion,40.8,yes,40.8,yes,mutant,G12D
F165,R0,chemotherapy,3,4,1,0,59,male,distal,no_invasion,38.9,yes,38.9,yes,mutant,G13D
F166,R0,chemotherapy,3,3,1,0,59,female,proximal,no_invasion,37.5,yes,37.5,yes,,
F167,R0,chemotherapy,3,4,2,0,63,female,proximal,invasion,25.6,no,34.2,yes,wild-type,wild-type
F168,R0,chemotherapy,3,3,1,0,50,male,proximal,invasion,9.6,yes,9.6,yes,wild-type,wild-type
F169,R0,chemotherapy,3,2,1,0,63,male,proximal,invasion,25.7,yes,25.7,yes,mutant,G13D
F170,R0,chemotherapy,3,4,2,0,32,female,distal,invasion,17.4,no,36,yes,wild-type,wild-type
F171,R0,chemotherapy,3,4,2,0,68,male,proximal,invasion,23.7,no,32.9,yes,wild-type,wild-type
F172,R0,chemotherapy,3,3,1,0,50,male,distal,invasion,26.9,yes,26.9,yes,mutant,G12D
F173,R0,chemotherapy,3,4,2,0,72,male,proximal,invasion,24.4,no,26.7,no,wild-type,wild-type
F175,R0,chemotherapy,3,4,2,0,56,male,distal,invasion,25.7,yes,25.7,yes,wild-type,wild-type
F176,R0,chemotherapy,3,4,2,0,57,male,distal,invasion,11.1,no,21.9,no,,
F177,R0,chemotherapy,3,3,2,0,37,male,rectal,invasion,9.5,yes,9.5,yes,wild-type,wild-type
F178,R0,chemotherapy,3,4,1,0,70,male,proximal,invasion,2.4,no,9.2,no,,
F179,,chemotherapy,3,4,2,0,60,male,proximal,,11.5,no,13.7,no,,
F180,R0,chemotherapy,3,4,1,0,56,male,rectal,,19.6,no,56.5,no,,
F181,,chemotherapy,3,4,2,0,58,male,proximal,,12.4,no,17.3,no,,
F182,R0,chemotherapy,3,3,1,0,68,male,rectal,,22.6,no,30.8,no,,
F183,R0,chemotherapy,3,3,2,0,68,female,distal,invasion,59.9,yes,59.9,yes,,
F184,,chemotherapy,3,4,1,0,65,female,proximal,,66.2,yes,66.2,yes,,
F185,R0,chemotherapy,3,4,1,0,66,female,proximal,,60.1,yes,60.1,yes,,
F186,,chemotherapy,3,3,2,0,64,male,proximal,,10.4,no,74.4,yes,,
F187,R0,chemotherapy,3,3,1,0,65,male,distal,,65.1,yes,65.1,yes,,
F188,R0,chemotherapy,3,4,2,0,69,female,proximal,,44.8,yes,44.8,yes,,
F189,R0,chemotherapy,3,4,1,0,25,female,proximal,,60.4,yes,60.4,yes,,
F190,R0,chemotherapy,3,3,1,0,73,male,distal,,23.9,no,30.3,no,,
F191,R0,chemotherapy,3,2,1,0,71,male,proximal,,75,yes,75,yes,,
F192,R0,chemotherapy,3,2,1,0,31,female,distal,,32.1,yes,32.1,yes,,
F193,R0,chemotherapy,3,3,2,0,38,female,distal,,8.8,yes,8.8,yes,,
F194,R0,chemotherapy,3,4,1,0,43,male,proximal,invasion,16.2,yes,16.2,yes,,
F195,R0,chemotherapy,3,3,1,0,59,female,proximal,invasion,11.1,yes,11.1,yes,,
F196,R0,chemotherapy,3,4,2,0,40,female,proximal,invasion,8.9,yes,8.9,yes,,
F197,not_R0,chemotherapy,3,4,1,0,56,male,distal,invasion,9.5,no,27.8,no,,
F198,R0,chemotherapy,3,4,1,0,70,male,distal,invasion,9.2,yes,9.2,yes,,
F199,,chemotherapy,3,4,2,0,70,male,proximal,no_invasion,68.8,yes,68.8,yes,,
F200,,chemotherapy,3,3,2,0,68,male,distal,,56.3,no,81.6,yes,,
F201,,chemotherapy,3,3,1,0,44,female,distal,invasion,63.1,yes,63.1,yes,,
F202,R0,chemotherapy,3,3,1,0,57,male,distal,invasion,70,yes,70,yes,,
F203,,chemotherapy,3,3,1,0,68,male,distal,,40.7,no,80.8,yes,,
